﻿ParticipantID;Distance per week;Charges per week;Power charged per week;Label
BL01;14924068,07;7,33;24,68;0
BL02;27232692,65;6,95;24,2;0
BL03;15218821,33;4,27;15,7;0
BL04;23430241,67;3,62;21,17;0
BL05;22347265;4,8;21,12;0
BL06;12116901,56;3,47;11,79;0
BL08;11053182,43;4,24;10,89;0
CC01;4890895,52;2,74;8,15;0
CC02;3879417,54;1,44;7,03;0
CC04;11838098,73;2,06;11,38;0
CC05;5141705,13;1,42;8,94;0
CC06;5676258,06;1,91;7,27;0
CC07;7693327,45;1,62;10,71;0
CC09;20730884,62;5,65;22,92;0
CC10;10631789,47;2,05;11,89;0
CRG01;39303745,95;5,72;38,08;0
CRG02;28169047,5;6,53;26,92;0
CRG03;22712015,58;3,5;23,43;0
CRG04;24803310;5,8;28,73;0
CRG06;16655640,26;2,83;16,73;0
CRG07;13977216,88;4,01;13,9;0
CRG08;19438021,79;6,04;18,94;0
CRG09;16194031,58;3,82;16,61;0
CRG10;32904175,95;7,62;28,36;0
CRG11;8248673,08;1,8;12,38;0
GC01;21025880;5,66;21,79;0
GC03;11181857,53;2,82;12,95;0
GC04;15802078,67;5,54;14,3;0
GC05;30154748,65;6,23;33,01;0
GC06;10423625,32;2,6;11,4;0
GC07;19323046,15;8,96;18,27;0
GC08;20634403,75;5,16;21,06;0
GC09;8362408,45;1,98;11,44;0
GC10;57228228,89;12,76;58,52;0
GC11;16740407,81;2,69;17,77;0
JD01;27044710,53;11,5;26,82;0
JD02;27418228,12;5,79;23,82;0
JD03;34238233,85;7,42;34,55;0
JD04;34923638,67;5,88;36,58;0
JD05;21803873,33;3,15;21,12;0
JD06;21035163,64;4,39;24,3;0
JD07;17369255,71;2,9;16,35;0
JD09;29212747,44;6,22;22,68;0
JD10;33029250,68;5,57;33,37;0
JD11;31804500;5,77;30,49;0
MC01;19470195;5,78;19,86;0
MC02;11673181,48;3,03;12,24;0
MC03;10333924,36;2,05;9,42;0
MC04;32381795;4,37;30,93;0
MC05;16989166,22;3,59;19,11;0
MC06;9739409,88;2,33;11,36;0
MC07;23720692;5,51;17,43;0
MC09;20358155,41;4,11;22,37;0
MC10;10835605,19;4,63;11,94;0
SS01;28397662,5;12,94;22,14;0
SS02;18048267,57;6,11;15,53;0
SS03;26355518,99;7,38;26,15;0
SS04;12488698,48;2,6;12,62;0
SS05;25527241,56;5,49;25,06;0
SS06;27826671,83;5,43;29,73;0
SS07;23628326,56;7,18;25,68;0
SS08;17040584,51;3,23;17;0
SS09;22053897,44;6,58;20,39;0
SS10;15724074,32;3,14;17,15;0
SS11;27715810,39;6,92;27,01;1
SS201;15721442,03;3,06;17,72;1
SS202;13914119,12;2,34;15,94;1
SS203;16630049,32;3,51;18,99;1
SS204;18665519,74;3,83;19,64;1
SS205;26878446,58;5,95;28,71;1
SS206;28137338,57;6,46;27,17;1
SS207;33992768;8,62;39,4;1
SS208;14604126,98;2,38;16,78;1
SS209;5403380,88;1,21;9,11;1
SS210;10674802,7;1,75;10,94;1
SS211;28761432,89;5,11;29,54;1
SS212;14752761,84;3,11;13,45;1
ST1000;15217555;2,53;16,65;1
ST1001;31714116,25;6,68;31,95;1
ST1002;32616602,6;9,24;36,89;1
ST1003;48076247,44;7,82;44,47;1
ST1004;23431440,26;3,84;23,07;1
ST1005;29776269,14;7,04;27,24;1
ST1006;35876336,36;9,08;32,16;1
ST1007;22424126,25;5,84;24,97;1
ST1009;32745909,21;7,09;30,64;1
ST1010;26019335;5,17;27,34;1
ST1011;42869771,43;6,76;38,17;1
ST1012;27731897,47;8,75;24,5;1
ST1013;27244412,82;6,59;34,13;1
ST1014;32637216,46;7,51;30,21;1
ST1015;2923625;1;8;1
ST1017;31911969,23;5,45;34,36;1
ST1018;16632868,83;4,85;14,6;1
ST1019;32106236,36;5,49;26,69;1
ST1020;25289516,67;6,12;26,22;1
ST1021;30866808,64;5,87;30,57;1
ST1022;15460585,19;6,09;15,77;1
ST1023;34233125;6,82;37,1;1
ST1027;27050621,05;6,27;25,3;1
ST1028;23393781,33;5,16;20,07;1
ST1029;31812041,43;7,45;28,13;1
ST1030;29890321,88;7,09;24,97;1
ST1031;39769476,67;8,64;32,43;1
ST1032;32938460,61;4,88;27,47;1
ST1034;14372716,67;2,27;13,76;1
ST1035;23979854,39;6,95;30,12;1
ST1036;25577117,14;3,37;24,6;1
ST1037;39969978,95;6,55;43,58;1
ST1038;21951054,17;6,08;20,3;1
ST1039;36314878,46;4,54;23,27;1
ST1041;39776809,33;6,37;36,51;1
ST1042;46124519,72;11,44;43,62;1
ST1043;31837122,54;5,71;29,24;1
ST1044;51724337,66;9,25;49,54;1
ST1045;53256630,38;6,74;37,74;1
ST1046;16781539,73;2,77;20,04;1
ST1047;19552743,42;5,53;20,5;1
ST1048;22522375,95;9,51;22,52;1
ST1049;10500150;2,63;10,8;1
ST1050;22399588,46;4,31;18,53;1
ST1051;30420934;5,29;31,71;1
ST1052;16124943,08;2,68;16,9;1
ST1053;36714337,66;7,84;34,57;1
ST1054;9539084,29;3,1;12,79;1
ST1055;40300433,78;7,42;34,93;1
ST1056;30446032,86;4,61;31,97;1
ST1057;19755550,82;4,47;24,86;1
ST1058;38330569,23;8,41;40,04;1
ST1059;24693327,78;4,2;17,41;1
ST1060;31559416,67;6,86;27,39;1
ST1061;41268441,56;7,76;39,39;1
ST1062;29566330,99;8,14;28,63;1
ST1063;17197925,71;2,68;20,51;1
ST1064;15062320;4,45;18,64;1
ST1065;41154864,56;8,23;49;1
ST1066;18937520;3,87;18,93;1
ST1067;24152092,19;3,55;21,33;1
ST1068;20829086,96;3,85;21,27;1
ST1069;34959160,32;5,44;34,18;1
ST1070;20890169,62;4,99;21,29;1
ST1071;59165367,57;8,19;50,25;1
ST1072;50922866,67;8,21;52,19;1
ST1073;14653772,58;3,68;15,1;1
ST1074;52390763,24;9,25;44,66;1
ST1075;46584227,14;6,23;42,01;1
ST1076;39375995,77;10,67;32,67;1
ST1077;24028650;5,41;24,14;1
ST1078;15356887,84;2,43;16,61;2
ST1079;44804779,03;5,98;43,1;2
ST1080;28074566,18;6,39;32,56;2
ST1081;27345106,06;4,84;27,05;2
ST1082;53842104,41;10,24;52,76;2
ST1083;27860286,79;4,28;24,13;2
ST1084;24350460;6,78;28,9;2
ST1085;21468844,78;3,72;23,75;2
ST1086;31733907,25;6,37;30,03;2
ST1087;39139228,99;4,6;34,01;2
ST1090;25039881,43;4,31;22,19;2
ST1091;10171544,93;5,23;10,72;2
ST1092;14340327,54;4,16;15,25;2
ST1093;25040776,27;4,38;27,33;2
ST1094;32054069,57;7,22;32,09;2
ST1095;21928082,93;3,85;15,56;2
ST1096;22709500;6,17;23,52;2
ST1097;11477411,76;2,74;14,66;2
ST1098;27531916,18;5,03;25,4;2
ST1099;31426305,71;6,07;31,29;2
ST1100;25043968,49;3,54;25,52;2
ST1101;39754163,89;5,46;35,09;2
ST1102;24606632,84;6,41;24,36;2
ST1103;29540817,46;7,63;26,1;2
ST1104;35749501,49;6,3;31,6;2
ST1105;31434310,61;4,1;22,95;2
ST1106;38720559,02;5,98;36,98;2
ST1107;25293711,94;4,62;25,11;2
ST1108;14847016,67;3,63;17,17;2
ST1110;17719196,43;4,08;20,15;2
ST1111;42296152,63;8,87;44,66;2
ST1112;30501813,56;9,85;32,58;2
ST1113;12900006,45;2,76;16;2
ST1114;18630475;4,78;21,09;2
SW01;17859386,49;4,01;17,43;2
SW03;25294815,94;4,67;25,39;2
SW04;35303610,94;7,59;34,19;2
SW05;16783659,15;3,84;14,58;2
SW06;25691785,29;5,59;26,1;2
SW07;8109055,17;4;11,94;2
SW09;1734166,1;1,27;7,62;2
SW10;23885395,83;4,17;22,18;2
SW11;9791483,33;2,85;13,6;2
SW12;28150232,31;3,85;26,1;2
WC01;15223171,19;4,6;14,71;2
WC02;28180072,97;5,77;29,32;2
WC03;27255033,77;5,49;26,67;2
WC04;22147834,55;7,46;28,27;2
WC05;32035874,36;4,97;28,43;2
WC06;17371867,57;5,49;18,14;2
WC07;17809194,81;4,39;20,8;2
WC08;19359964,41;5,8;20,24;2
WC09;25998398,7;7,24;26,28;2
WC11;32316610,13;4,85;27,36;2
YH01;11142127,63;3,97;13,44;3
YH02;8139965,52;2,52;9,33;3
YH03;12536262,34;3,05;15,02;3
YH04;26959498,68;4,67;25,2;3
YH05;37945215,19;7,71;36,27;3
YH06;24449202,6;4,85;23,45;3
YH08;11655883,87;3,46;14,89;3
YH09;23744241,18;3,46;19,94;3
YH10;22863352,17;4,24;23,31;3
YH11;33000541,1;5,18;32,11;3
YH12;15347708,86;2,77;15,12;3
YH13;24288495,65;5,5;24,14;3
YH14;7657,56;1,7;11,76;3
